{
  "model" : "TestBar",
  "originalMeshFile" : "./inputs/TestBarRefinedCenter.exo",
  "ellipsoidalMeshFile" : "./inputs/20VF_MTR_Ellipsoids.xdmf",
  "albanyInputTemplateFile" : "./inputs/inputTemplate.yaml",
  "transferDataSetTranslation" : [-7.168, -7.168, -7.168],
  "transferDataSetScale" : 0.0035,
  "transferDataSetRotation" : [0.0, 0.0, 0.0],
  "hardnessGenerationStyle" : "allSoft",
  "basematElasticModulus" : 3.0e6,
  "hardmatElasticModulus" : 3.9e6,
  "softmatElasticModulus" : 2.1e6
}
