{
  "model" : "Turbine",
  "originalMeshFile" : "./inputs/TurbineBlade0.13.exo",
  "albanyInputTemplateFile" : "./inputs/turbineInputTemplate.yaml",
  "hardnessGenerationStyle" : "randomLabelled",
  "basematElasticModulus" : 3.0e6,
  "hardmatElasticModulus" : 3.9e6,
  "softmatElasticModulus" : 2.1e6,
  "enableMultipleCubes" : true,
  "ellipsoidalMeshFiles" : [
                             "./inputs/20VF_MTR_Ellipsoids.xdmf",
                             "./inputs/20VF_MTR_Ellipsoids.xdmf"
                           ],
  "transferDataSetScales" : [
                              0.001,
                              0.001
                            ],
  "transferDataSetRotations" : [
                                 [0.0, 0.0, 90.0],
                                 [0.0, 0.0, 90.0]
                               ],
  "transferDataSetTranslations" : [
                                    [-6.5000,  3.0000, 50.7500],
                                    [ 2.7500,  7.0000, 51.2500]
                                  ]

}
